…
    ##   usuário   sistema decorrido 
    ## 99313.057  1621.322  2650.029

# Performance evaluation and selection of the best model

## MODEL COMPARISON

``` r
# show metrics for the models
model_race %>% collect_metrics(metrics = data_metrics) %>%
  group_by(wflow_id)
```

    ## # A tibble: 3,045 × 9
    ## # Groups:   wflow_id [6]
    ##    wflow_id       .config   preproc model .metric .estimator  mean     n std_err
    ##    <chr>          <chr>     <chr>   <chr> <chr>   <chr>      <dbl> <int>   <dbl>
    ##  1 recipe_bagTree Preproce… recipe  bag_… bal_ac… macro      0.747    40 0.00485
    ##  2 recipe_bagTree Preproce… recipe  bag_… f_meas  macro      0.641    40 0.00679
    ##  3 recipe_bagTree Preproce… recipe  bag_… mcc     multiclass 0.477    40 0.0102 
    ##  4 recipe_bagTree Preproce… recipe  bag_… precis… macro      0.641    40 0.00675
    ##  5 recipe_bagTree Preproce… recipe  bag_… roc_auc hand_till  0.833    40 0.00443
    ##  6 recipe_bagTree Preproce… recipe  bag_… sensit… macro      0.667    40 0.00637
    ##  7 recipe_bagTree Preproce… recipe  bag_… specif… macro      0.827    40 0.00356
    ##  8 recipe_bagTree Preproce… recipe  bag_… bal_ac… macro      0.749    40 0.00415
    ##  9 recipe_bagTree Preproce… recipe  bag_… f_meas  macro      0.644    40 0.00550
    ## 10 recipe_bagTree Preproce… recipe  bag_… mcc     multiclass 0.481    40 0.00851
    ## # ℹ 3,035 more rows
…
